DATA 624 Project 2: Technical Report
…
# Summarize missing data
StudentData |>
    summarise(across(everything(), ~ sum(is.na(.)))) |>
    pivot_longer(everything()) |>
    filter(value > 0) |>
    arrange(desc(value))

# A tibble: 31 × 2
   name           value
   <chr>          <int>
 1 MFR              212
 2 Brand Code       120
 3 Filler Speed      57
 4 PC Volume         39
 5 PSC CO2           39
 6 Fill Ounces       38
 7 PSC               33
 8 Carb Pressure1    32
 9 Hyd Pressure4     30
10 Carb Pressure     27
# ℹ 21 more rows
…
